{
	"class_name" 			: "GrabberMotor",
	"function_1" 			: "doGrab",
	"function_1_param"	 	: [{
			"name" 			: "robot_id",
			"type" 			: "int",
			"comment" 		: "Roboter ID"
			},
			{
			"name" 			: "degree",
			"type" 			: "int",
			"comment" 		: "Degrees of movement"
		}]
}